{
  "result": {
    "timestamp": "9:49 am AEST",
    "location": "Sydney, AU",
    "description": "Partly sunny",
    "temperature": "11\u2103",
    "feels_like": "14\u2103",
    "humidity": "78%",
    "wind_speed": "8 m/s"
  }
}